3 Section 2 - Linear Models Overview | Data Science Linear Regression
…
as_tibble(Teams)

## # A tibble: 2,925 x 48
##    yearID lgID  teamID franchID divID  Rank     G Ghome     W     L DivWin WCWin LgWin WSWin     R    AB     H   X2B   X3B    HR    BB    SO    SB    CS   HBP    SF    RA    ER   ERA
##     <int> <fct> <fct>  <fct>    <chr> <int> <int> <int> <int> <int> <chr>  <chr> <chr> <chr> <int> <int> <int> <int> <int> <int> <int> <int> <int> <int> <int> <int> <int> <int> <dbl>
##  1   1871 NA    BS1    BNA      <NA>      3    31    NA    20    10 <NA>   <NA>  N     <NA>    401  1372   426    70    37     3    60    19    73    16    NA    NA   303   109  3.55
##  2   1871 NA    CH1    CNA      <NA>      2    28    NA    19     9 <NA>   <NA>  N     <NA>    302  1196   323    52    21    10    60    22    69    21    NA    NA   241    77  2.76
##  3   1871 NA    CL1    CFC      <NA>      8    29    NA    10    19 <NA>   <NA>  N     <NA>    249  1186   328    35    40     7    26    25    18     8    NA    NA   341   116  4.11
##  4   1871 NA    FW1    KEK      <NA>      7    19    NA     7    12 <NA>   <NA>  N     <NA>    137   746   178    19     8     2    33     9    16     4    NA    NA   243    97  5.17
##  5   1871 NA    NY2    NNA      <NA>      5    33    NA    16    17 <NA>   <NA>  N     <NA>    302  1404   403    43    21     1    33    15    46    15    NA    NA   313   121  3.72
##  6   1871 NA    PH1    PNA      <NA>      1    28    NA    21     7 <NA>   <NA>  Y     <NA>    376  1281   410    66    27     9    46    23    56    12    NA    NA   266   137  4.95
##  7   1871 NA    RC1    ROK      <NA>      9    25    NA     4    21 <NA>   <NA>  N     <NA>    231  1036   274    44    25     3    38    30    53    10    NA    NA   287   108  4.3 
##  8   1871 NA    TRO    TRO      <NA>      6    29    NA    13    15 <NA>   <NA>  N     <NA>    351  1248   384    51    34     6    49    19    62    24    NA    NA   362   153  5.51
##  9   1871 NA    WS3    OLY      <NA>      4    32    NA    15    15 <NA>   <NA>  N     <NA>    310  1353   375    54    26     6    48    13    48    13    NA    NA   303   137  4.37
## 10   1872 NA    BL1    BLC      <NA>      2    58    NA    35    19 <NA>   <NA>  N     <NA>    617  2571   753   106    31    14    29    28    53    18    NA    NA   434   166  2.9 
## # … with 2,915 more rows, and 19 more variables: CG <int>, SHO <int>, SV <int>, IPouts <int>, HA <int>, HRA <int>, BBA <int>, SOA <int>, E <int>, DP <int>, FP <dbl>, name <chr>,
## #   park <chr>, attendance <int>, BPF <int>, PPF <int>, teamIDBR <chr>, teamIDlahman45 <chr>, teamIDretro <chr>
…
## Warning in set.seed(1, sample.kind = "Rounding"): non-uniform 'Rounding' sampler used

galton <- GaltonFamilies %>%
    group_by(family, gender) %>%
    sample_n(1) %>%
    ungroup() %>% 
    gather(parent, parentHeight, father:mother) %>%
    mutate(child = ifelse(gender == "female", "daughter", "son")) %>%
    unite(pair, c("parent", "child"))

galton

## # A tibble: 710 x 8
##    family midparentHeight children childNum gender childHeight pair            parentHeight
##    <fct>            <dbl>    <int>    <int> <fct>        <dbl> <chr>                  <dbl>
##  1 001               75.4        4        2 female        69.2 father_daughter         78.5
##  2 001               75.4        4        1 male          73.2 father_son              78.5
##  3 002               73.7        4        4 female        65.5 father_daughter         75.5
##  4 002               73.7        4        2 male          72.5 father_son              75.5
##  5 003               72.1        2        2 female        68   father_daughter         75  
##  6 003               72.1        2        1 male          71   father_son              75  
##  7 004               72.1        5        5 female        63   father_daughter         75  
##  8 004               72.1        5        2 male          68.5 father_son              75  
##  9 005               69.1        6        5 female        62.5 father_daughter         75  
## 10 005               69.1        6        1 male          72   father_son              75  
## # … with 700 more rows
…
ROY <- ROY %>%
    filter(yearID == rookie_year | yearID == rookie_year+1) %>%
    group_by(playerID) %>%
    mutate(rookie = ifelse(yearID == min(yearID), "rookie", "sophomore")) %>%
    filter(n() == 2) %>%
    ungroup %>%
    select(playerID, rookie_year, rookie, nameFirst, nameLast, AVG)

The code to use the spread function to have one column for the rookie and sophomore years batting averages:

ROY <- ROY %>% spread(rookie, AVG) %>% arrange(desc(rookie))
ROY

## # A tibble: 102 x 6
##    playerID  rookie_year nameFirst nameLast rookie sophomore
##    <chr>           <int> <chr>     <chr>     <dbl>     <dbl>
##  1 mccovwi01        1959 Willie    McCovey   0.354     0.238
##  2 suzukic01        2001 Ichiro    Suzuki    0.350     0.321
##  3 bumbral01        1973 Al        Bumbry    0.337     0.233
##  4 lynnfr01         1975 Fred      Lynn      0.331     0.314
##  5 pujolal01        2001 Albert    Pujols    0.329     0.314
##  6 troutmi01        2012 Mike      Trout     0.326     0.323
##  7 braunry02        2007 Ryan      Braun     0.324     0.285
##  8 olivato01        1964 Tony      Oliva     0.323     0.321
##  9 hargrmi01        1974 Mike      Hargrove  0.323     0.303
## 10 darkal01         1948 Al        Dark      0.322     0.276
## # … with 92 more rows
…
## `summarise()` regrouping output by 'playerID' (override with `.groups` argument)

two_years

## # A tibble: 312 x 4
##    nameFirst nameLast `2013` `2014`
##    <chr>     <chr>     <dbl>  <dbl>
##  1 Miguel    Cabrera   0.348  0.313
##  2 Hanley    Ramirez   0.345  0.283
##  3 Michael   Cuddyer   0.331  0.332
##  4 Scooter   Gennett   0.324  0.289
##  5 Joe       Mauer     0.324  0.277
##  6 Mike      Trout     0.323  0.287
##  7 Chris     Johnson   0.321  0.263
##  8 Freddie   Freeman   0.319  0.288
##  9 Yasiel    Puig      0.319  0.296
## 10 Yadier    Molina    0.319  0.282
## # … with 302 more rows

The code to see what happens to the worst performers of 2013:

arrange(two_years, `2013`)

## # A tibble: 312 x 4
##    nameFirst nameLast  `2013` `2014`
##    <chr>     <chr>      <dbl>  <dbl>
##  1 Danny     Espinosa   0.158  0.219
##  2 Dan       Uggla      0.179  0.149
##  3 Jeff      Mathis     0.181  0.2  
##  4 B. J.     Upton      0.184  0.208
##  5 Adam      Rosales    0.190  0.262
##  6 Aaron     Hicks      0.192  0.215
##  7 Chris     Colabello  0.194  0.229
##  8 J. P.     Arencibia  0.194  0.177
##  9 Tyler     Flowers    0.195  0.241
## 10 Ryan      Hanigan    0.198  0.218
## # … with 302 more rows
…
